{
	"totalCount":80,
	"totalPage":8,
	"pagination":{
		"pageIndex":1,
		"pageSize":10,
		"totlePageCount":20
	},
	"list":[
	{
		"id":"1",
		"name":"和秋叶一起学职场技能",
		"bigPhotoUrl":"http://img1.ph.126.net/eg62.png",
		"middlePhotoUrl ":"http://img1.ph.126.net/eg62.png",
		"smallPhotoUrl":"http://img1.ph.126.net/eg62.png",
		"provider":"秋叶",
		"learnerCount":"23",
		"price":"128",
		"categoryName":"办公技能",
		"description":"适用人群：最适合即将实习、求职、就职的大学生，入职一、二三年的新人。别以为那些职场老人都知道！"
	},
	{
		"id":"2",
		"name":"工科数学讲解",
		"bigPhotoUrl":"http://img1.ph.126.net/eg62.png",
		"middlePhotoUrl ":"http://img1.ph.126.net/eg62.png",
		"smallPhotoUrl":"http://img1.ph.126.net/eg62.png",
		"provider":"清华大学",
		"learnerCount":"234",
		"price":"188",
		"categoryName":"办公技能",
		"description":"适用人群：最适合即将实习、求职、就职的大学生，入职一、二三年的新人。别以为那些职场老人都知道！"
	},
	{
		"id":"2",
		"name":"工科数学讲解",
		"bigPhotoUrl":"http://img1.ph.126.net/eg62.png",
		"middlePhotoUrl ":"http://img1.ph.126.net/eg62.png",
		"smallPhotoUrl":"http://img1.ph.126.net/eg62.png",
		"provider":"清华大学",
		"learnerCount":"234",
		"price":"188",
		"categoryName":"办公技能",
		"description":"适用人群：最适合即将实习、求职、就职的大学生，入职一、二三年的新人。别以为那些职场老人都知道！"
	},
	{
		"id":"2",
		"name":"工科数学讲解",
		"bigPhotoUrl":"http://img1.ph.126.net/eg62.png",
		"middlePhotoUrl ":"http://img1.ph.126.net/eg62.png",
		"smallPhotoUrl":"http://img1.ph.126.net/eg62.png",
		"provider":"清华大学",
		"learnerCount":"234",
		"price":"188",
		"categoryName":"办公技能",
		"description":"适用人群：最适合即将实习、求职、就职的大学生，入职一、二三年的新人。别以为那些职场老人都知道！"
	},
	{
		"id":"2",
		"name":"工科数学讲解",
		"bigPhotoUrl":"http://img1.ph.126.net/eg62.png",
		"middlePhotoUrl ":"http://img1.ph.126.net/eg62.png",
		"smallPhotoUrl":"http://img1.ph.126.net/eg62.png",
		"provider":"清华大学",
		"learnerCount":"234",
		"price":"188",
		"categoryName":"办公技能",
		"description":"适用人群：最适合即将实习、求职、就职的大学生，入职一、二三年的新人。别以为那些职场老人都知道！"
	},
	{
		"id":"2",
		"name":"工科数学讲解",
		"bigPhotoUrl":"http://img1.ph.126.net/eg62.png",
		"middlePhotoUrl ":"http://img1.ph.126.net/eg62.png",
		"smallPhotoUrl":"http://img1.ph.126.net/eg62.png",
		"provider":"清华大学",
		"learnerCount":"234",
		"price":"188",
		"categoryName":"办公技能",
		"description":"适用人群：最适合即将实习、求职、就职的大学生，入职一、二三年的新人。别以为那些职场老人都知道！"
	},
	{
		"id":"2",
		"name":"工科数学讲解",
		"bigPhotoUrl":"http://img1.ph.126.net/eg62.png",
		"middlePhotoUrl ":"http://img1.ph.126.net/eg62.png",
		"smallPhotoUrl":"http://img1.ph.126.net/eg62.png",
		"provider":"清华大学",
		"learnerCount":"234",
		"price":"188",
		"categoryName":"办公技能",
		"description":"适用人群：最适合即将实习、求职、就职的大学生，入职一、二三年的新人。别以为那些职场老人都知道！"
	},
	{
		"id":"2",
		"name":"工科数学讲解",
		"bigPhotoUrl":"http://img1.ph.126.net/eg62.png",
		"middlePhotoUrl ":"http://img1.ph.126.net/eg62.png",
		"smallPhotoUrl":"http://img1.ph.126.net/eg62.png",
		"provider":"清华大学",
		"learnerCount":"234",
		"price":"188",
		"categoryName":"办公技能",
		"description":"适用人群：最适合即将实习、求职、就职的大学生，入职一、二三年的新人。别以为那些职场老人都知道！"
	},
	{
		"id":"2",
		"name":"工科数学讲解",
		"bigPhotoUrl":"http://img1.ph.126.net/eg62.png",
		"middlePhotoUrl ":"http://img1.ph.126.net/eg62.png",
		"smallPhotoUrl":"http://img1.ph.126.net/eg62.png",
		"provider":"清华大学",
		"learnerCount":"234",
		"price":"188",
		"categoryName":"办公技能",
		"description":"适用人群：最适合即将实习、求职、就职的大学生，入职一、二三年的新人。别以为那些职场老人都知道！"
	},
	{
		"id":"2",
		"name":"工科数学讲解",
		"bigPhotoUrl":"http://img1.ph.126.net/eg62.png",
		"middlePhotoUrl ":"http://img1.ph.126.net/eg62.png",
		"smallPhotoUrl":"http://img1.ph.126.net/eg62.png",
		"provider":"清华大学",
		"learnerCount":"234",
		"price":"188",
		"categoryName":"办公技能",
		"description":"适用人群：最适合即将实习、求职、就职的大学生，入职一、二三年的新人。别以为那些职场老人都知道！"
	},
	{
		"id":"2",
		"name":"工科数学讲解",
		"bigPhotoUrl":"http://img1.ph.126.net/eg62.png",
		"middlePhotoUrl ":"http://img1.ph.126.net/eg62.png",
		"smallPhotoUrl":"http://img1.ph.126.net/eg62.png",
		"provider":"清华大学",
		"learnerCount":"234",
		"price":"188",
		"categoryName":"办公技能",
		"description":"适用人群：最适合即将实习、求职、就职的大学生，入职一、二三年的新人。别以为那些职场老人都知道！"
	},
	{
		"id":"2",
		"name":"工科数学讲解",
		"bigPhotoUrl":"http://img1.ph.126.net/eg62.png",
		"middlePhotoUrl ":"http://img1.ph.126.net/eg62.png",
		"smallPhotoUrl":"http://img1.ph.126.net/eg62.png",
		"provider":"清华大学",
		"learnerCount":"234",
		"price":"188",
		"categoryName":"办公技能",
		"description":"适用人群：最适合即将实习、求职、就职的大学生，入职一、二三年的新人。别以为那些职场老人都知道！"
	},
	{
		"id":"2",
		"name":"工科数学讲解",
		"bigPhotoUrl":"http://img1.ph.126.net/eg62.png",
		"middlePhotoUrl ":"http://img1.ph.126.net/eg62.png",
		"smallPhotoUrl":"http://img1.ph.126.net/eg62.png",
		"provider":"清华大学",
		"learnerCount":"234",
		"price":"188",
		"categoryName":"办公技能",
		"description":"适用人群：最适合即将实习、求职、就职的大学生，入职一、二三年的新人。别以为那些职场老人都知道！"
	},
	{
		"id":"2",
		"name":"工科数学讲解",
		"bigPhotoUrl":"http://img1.ph.126.net/eg62.png",
		"middlePhotoUrl ":"http://img1.ph.126.net/eg62.png",
		"smallPhotoUrl":"http://img1.ph.126.net/eg62.png",
		"provider":"清华大学",
		"learnerCount":"234",
		"price":"188",
		"categoryName":"办公技能",
		"description":"适用人群：最适合即将实习、求职、就职的大学生，入职一、二三年的新人。别以为那些职场老人都知道！"
	},
	{
		"id":"2",
		"name":"工科数学讲解",
		"bigPhotoUrl":"http://img1.ph.126.net/eg62.png",
		"middlePhotoUrl ":"http://img1.ph.126.net/eg62.png",
		"smallPhotoUrl":"http://img1.ph.126.net/eg62.png",
		"provider":"清华大学",
		"learnerCount":"234",
		"price":"188",
		"categoryName":"办公技能",
		"description":"适用人群：最适合即将实习、求职、就职的大学生，入职一、二三年的新人。别以为那些职场老人都知道！"
	},
	{
		"id":"2",
		"name":"工科数学讲解",
		"bigPhotoUrl":"http://img1.ph.126.net/eg62.png",
		"middlePhotoUrl ":"http://img1.ph.126.net/eg62.png",
		"smallPhotoUrl":"http://img1.ph.126.net/eg62.png",
		"provider":"清华大学",
		"learnerCount":"234",
		"price":"188",
		"categoryName":"办公技能",
		"description":"适用人群：最适合即将实习、求职、就职的大学生，入职一、二三年的新人。别以为那些职场老人都知道！"
	},
	{
		"id":"2",
		"name":"工科数学讲解",
		"bigPhotoUrl":"http://img1.ph.126.net/eg62.png",
		"middlePhotoUrl ":"http://img1.ph.126.net/eg62.png",
		"smallPhotoUrl":"http://img1.ph.126.net/eg62.png",
		"provider":"清华大学",
		"learnerCount":"234",
		"price":"188",
		"categoryName":"办公技能",
		"description":"适用人群：最适合即将实习、求职、就职的大学生，入职一、二三年的新人。别以为那些职场老人都知道！"
	},
	{
		"id":"2",
		"name":"工科数学讲解",
		"bigPhotoUrl":"http://img1.ph.126.net/eg62.png",
		"middlePhotoUrl ":"http://img1.ph.126.net/eg62.png",
		"smallPhotoUrl":"http://img1.ph.126.net/eg62.png",
		"provider":"清华大学",
		"learnerCount":"234",
		"price":"188",
		"categoryName":"办公技能",
		"description":"适用人群：最适合即将实习、求职、就职的大学生，入职一、二三年的新人。别以为那些职场老人都知道！"
	}
	]
}